{
  "portalConfig": {
    "map": {
      "baselayerSwitcher": {
        "active": true
      },
      "controls": {
        "rotation":  {
          "showResetRotationAlways": true,
          "showResetRotation": true,
          "rotationIcons": true,
          "moveDistance": 2500,
          "compass2d": true
          } ,
        "zoom": true,
        "tiltView": true,
        "startModule": {
          "secondaryMenu": [
            {
              "type": "addWMS"
            }
          ]
        },
        "totalView": true,
        "button3d": true,
        "expandable": {
          "backForward": true,
          "orientation": {
            "zoomMode": "once",
            "poiDistances": [
              500,
              1000,
              2000
            ]
          },
          "freeze": true,
          "fullScreen": true
        }
      },
      "featureViaURL": {
        "zoomTo": "42",
        "epsg": 4326,
        "layers": [
          {
            "id": "42",
            "geometryType": "Point",
            "name": "Punkt Feature",
            "styleId": "location_eventlotse"
          },
          {
            "id": "4200",
            "geometryType": "LineString",
            "name": "Übergebene Linien Feature",
            "styleId": "mapMarkerPolygon_flaecheninfo"
          },
          {
            "id": "4020",
            "geometryType": "Polygon",
            "name": "Übergebene Polygon Feature",
            "styleId": "mapMarkerPolygon_flaecheninfo"
          }
        ]
      },
      "getFeatureInfo": {
        "coloredHighlighting3D": {
          "enabled": true,
          "color": "PURPLE"
        },
        "highlightVectorRules": {
          "fill": {
            "color": [
              215,
              102,
              41,
              0.9
            ]
          },
          "image": {
            "scale": 1.5
          },
          "stroke": {
            "width": 4,
            "color": [
              215,
              102,
              41,
              0.9
            ]
          },
          "text": {
            "scale": 2
          }
        },
        "hideMapMarkerOnVectorHighlight": false
      },
      "layerPills": {
        "active": true
      },
      "map3dParameter": {
        "fog": {
          "enabled": true,
          "density": 0.0002,
          "screenSpaceErrorFactor": 2.0
        },
        "fxaa": true,
        "globe": {
          "enableLighting": true,
          "maximumScreenSpaceError": 2,
          "tileCacheSize": 20
        }
      },
      "mapMarker": {
        "pointStyleId": "mapMarker_geo-alt-fill"
      },
      "mapView": {
        "backgroundImage": "https://geodienste.hamburg.de/lgv-config/img/backgroundCanvas.jpeg",
        "startZoomLevel": 4,
        "startCenter": [
          565874,
          5934140
        ],
        "mapInteractions": {
          "interactionModes": {
            "altShiftDragRotate": true,
            "twoFingerPan": true
          }
        }
      },
      "mouseHover": {
        "numFeaturesToShow": 2,
        "infoText": "Exampletext"
      },
      "startingMapMode": "2D",
      "zoomTo": [
        {
          "id": "zoomToGeometry",
          "layerId": "1692",
          "property": "bezirk_name",
          "allowedValues": [
            "ALTONA",
            "HARBURG",
            "HAMBURG-NORD",
            "BERGEDORF",
            "EIMSBÜTTEL",
            "HAMBURG-MITTE",
            "WANDSBEK"
          ]
        },
        {
          "id": "zoomToFeatureId",
          "layerId": "4560",
          "property": "flaechenid",
          "styleId": "location_eventlotse"
        }
      ]
    },
    "mainMenu": {
      "expanded": true,
      "title": {
        "text": "Master",
        "logo": "https://geodienste.hamburg.de/lgv-config/img/hh-logo.png",
        "link": "https://geoinfo.hamburg.de",
        "toolTip": "Landesbetrieb Geoinformation und Vermessung"
      },
      "searchBar": {
        "placeholder": "common:modules.searchBar.placeholder.addressTopic",
        "searchInterfaces": [
          {
            "type": "elasticSearch",
            "searchInterfaceId":"elasticSearch_0",
            "serviceId": "elastic_prod",
            "requestType": "GET",
            "hitTemplate": "layer",
            "payload": {
              "id": "query",
              "params": {
                "query_string": "",
                "typ": [
                  "sensorthings",
                  "wms"
                ],
                "size": 30
              }
            },
            "searchStringAttribute": "query_string",
            "responseEntryPath": "hits.hits",
            "hitMap": {
              "name": "_source.name",
              "id": "_source.id",
              "source": "_source",
              "layerId": "_source.id",
              "toolTip": [
                "_source.name",
                "_source.datasets.md_name"
              ]
            },
            "resultEvents": {
              "onClick": [
                "addLayerToTopicTree"
              ],
              "buttons": [
                "showInTree",
                "showLayerInfo"
              ]
            }
          },
          {
            "type": "elasticSearch",
            "searchInterfaceId":"elasticSearch_1",
            "serviceId": "elastic_address",
            "requestType": "POST",
            "epsg": "EPSG:4326",
            "searchStringAttribute": "query_str",
            "hitType": "_source.properties.type",
            "payload": {
              "id": "addr_search",
              "params": {
                "query_str": ""
              }
            },
            "responseEntryPath": "hits.hits",
            "hitMap": {
              "name": "_source.properties.searchfield",
              "id": "_source.id",
              "coordinate": "_source.geometry.coordinates"
            },
            "resultEvents": {
              "onClick": [
                "setMarker",
                "zoomToResult"
              ],
              "onHover": [
                "setMarker"
              ],
              "buttons": [
                "startRouting",
                "setMarker",
                "zoomToResult"
              ]
            }
          },
          {
            "type": "gazetteer",
            "serviceId": "6",
            "searchAddress": true,
            "searchStreets": true,
            "searchHouseNumbers": true,
            "searchDistricts": true,
            "searchParcels": true,
            "searchStreetKey": true,
            "resultEvents": {
              "onClick": [
                "setMarker",
                "zoomToResult"
              ],
              "onHover": [
                "setMarker"
              ],
              "buttons": [
                "startRouting"
              ]
            }
          },
          {
            "type": "locationFinder",
            "serviceId": "locationFinder",
            "classes": [
              {
                "name": "Haltestelle",
                "icon": "bi-record-circle"
              },
              {
                "name": "Straßenname"
              }
            ]
          },
          {
            "type": "komootPhoton",
            "minChars": 3,
            "serviceId": "11",
            "limit": 10,
            "lang": "de",
            "lat": 53.6,
            "lon": 10.0,
            "bbox": "9.6,53.3,10.4,53.8"
          },
          {
            "type": "osmNominatim",
            "serviceId": "10",
            "limit": 60,
            "states": "Hamburg",
            "classes": "place,highway,building,shop,historic,leisure,city,county"
          },
          {
            "type": "topicTree",
            "searchInterfaceId":"topicTree",
            "hitTemplate": "layer"
          },
          {
            "type": "visibleVector",
            "resultEvents": {
              "onClick": [
                "openGetFeatureInfo",
                "setMarker",
                "zoomToResult"
              ],
              "onHover": [
                "setMarker"
              ],
              "buttons": [
                "startRouting"
              ]
            }
          },
          {
            "type": "exampleSearch"
          },
          {
            "type": "specialWfs",
            "definitions": [
              {
                "url": "https://geodienste.hamburg.de/HH_WFS_Krankenhaeuser",
                "typeName": "de.hh.up:gesundheit_krankenhaeuser",
                "propertyNames": ["de.hh.up:name"],
                "geometryName": "de.hh.up:geom",
                        "name": "Krankenhaus123",
                        "namespaces": "xmlns:de.hh.up='https://registry.gdi-de.org/id/de.hh.up'"
              },
              {
                "url": "https://geodienste.hamburg.de/HH_WFS_Bebauungsplaene",
                "typeName": "app:hh_hh_festgestellt",
                "propertyNames": [
                  "app:geltendes_planrecht"
                ],
                "geometryName": "app:geom",
                "name": "common:modules.searchBar.specialWFS.terminated",
                "namespaces": "xmlns:app='http://www.deegree.org/app'"
              },
              {
                "url": "https://geodienste.hamburg.de/HH_WFS_Bebauungsplaene",
                "typeName": "app:prosin_imverfahren",
                "propertyNames": [
                  "app:plan"
                ],
                "geometryName": "app:the_geom",
                "name": "common:modules.searchBar.specialWFS.ongoing",
                "namespaces": "xmlns:app='http://www.deegree.org/app'"
              },
              {
                "url": "https://geodienste.hamburg.de/HH_WFS_KitaEinrichtung",
                "typeName": "app:KitaEinrichtungen",
                "propertyNames": [
                  "app:Name"
                ],
                "namespaces": "xmlns:app='http://www.deegree.org/app'"
              },
              {
                "url": "https://geodienste.hamburg.de/HH_WFS_Stoerfallbetriebe",
                "typeName": "app:stoerfallbetrieb",
                "propertyNames": [
                  "app:standort"
                ],
                "name": "common:modules.searchBar.specialWFS.hazardous",
                "namespaces": "xmlns:app='http://www.deegree.org/app'"
              }
            ]
          }
        ]
      },
      "sections": [
        [
          {
            "type": "about",
            "cswUrl": "https://metaver.de/csw",
            "metaUrl": "https://metaver.de/trefferanzeige?docuuid=40D48B03-AD1D-407B-B04D-B5BC6855BE15",
            "metaId": "40D48B03-AD1D-407B-B04D-B5BC6855BE15"
          },
          {
            "type": "legend"
          },
          {
            "type": "shareView",
            "facebookShare": true,
            "qrShare": true
          },
          {
            "type": "fileImport",
            "customStylingOption": true
          },
          {
            "type": "openConfig"
          },
          {
            "type": "draw"
          },
          {
            "type": "selectFeatures"
          },
          {
            "type": "contact",
            "serviceId": "80001",
            "includeSystemInfo": true,
            "fileUpload": true,
            "infoMessage": "",
            "from": [
              {
                "email": "lgvgeoportal-hilfe@gv.hamburg.de",
                "name": "LGVGeoportalHilfe"
              }
            ],
            "to": [
              {
                "email": "lgvgeoportal-hilfe@gv.hamburg.de",
                "name": "LGVGeoportalHilfe"
              }
            ]
          },
          {
            "type": "news"
          },
          {
            "type": "language"
          },
          {
            "name": "benutzerdefinierte Menüelemente",
            "icon": "bi-folder-plus",
            "type": "folder",
            "elements": [
              {
                "type": "customMenuElement",
                "name": "Url öffnen",
                "openURL": "https://geoinfo.hamburg.de/"
              },
              {
                "type": "customMenuElement",
                "name": "Url öffnen und HTML anzeigen",
                "openURL": "https://geoinfo.hamburg.de/",
                "htmlContent": "<div><h1>This is a Heading</h1><p>Es wurde eine Url geöffnet.<p/></div>"
              },
              {
                "type": "customMenuElement",
                "name": "HTML aus config.json und Action",
                "htmlContent": "<div><h1>This is a Heading</h1><p>This is a paragraph.</p></br><a href=\"https://www.w3schools.com/\" target=\"_blank\">Visit W3Schools.com!</a></div>",
                "execute": {
                  "action": "Alerting/addSingleAlert",
                  "payload": {
                    "title": "An alle Menschen",
                    "content": "Hallo Welt"
                  }
                }
              },
              {
                "type": "customMenuElement",
                "name": "HTML aus externer Datei",
                "icon": "bi-youtube",
                "pathToContent": "./resources/customMenuElementContent.html"
              }
            ]
          },
          {
            "name": "folder1",
            "icon": "bi-folder-plus",
            "type": "folder",
            "elements": [
              {
                "name": "folder1_1",
                "icon": "bi-folder-plus",
                "type": "folder",
                "elements": [
                  {
                    "name": "folder1_1_1",
                    "icon": "bi-folder-plus",
                    "type": "folder",
                    "elements": [
                      {
                        "type": "bufferAnalysis"
                      }
                    ]
                  },
                  {
                    "name": "folder1_1_2",
                    "icon": "bi-folder-plus",
                    "type": "folder",
                    "elements": []
                  }
                ]
              },
              {
                "name": "folder1_2",
                "icon": "bi-folder-plus",
                "type": "folder",
                "elements": []
              }
            ]
          },
          {
            "name": "Ansichten",
            "icon": "bi-binoculars-fill",
            "type": "folder",
            "elements": [
              {
                "name": "Ansicht 1",
                "icon": "bi-bullseye",
                "type": "customMenuElement",
                "execute": {
                  "action": "Maps/activateViewpoint",
                  "payload": {
                    "heading": -0.30858728378862876,
                    "tilt": -90,
                    "altitude": 272.3469798217454,
                    "center": [
                      564028.7954571751,
                      5934555.967867207
                    ],
                    "zoom": 7.456437968949651
                  }
                }
              }
            ]
          }
        ]
      ]
    },
    "secondaryMenu": {
      "expanded": true,
      "sections": [
        [
          {
            "type": "populationRequest"
          },
          {
            "type": "compareFeatures"
          },
          {
            "type": "print",
            "printServiceId": "mapfish",
            "printAppId": "master",
            "filename": "Ausdruck",
            "title": "Mein Titel",
            "currentLayoutName": "A4 Hochformat",
            "printMapMarker": true
          },
          {
            "type": "featureLister",
            "maxFeatures": 10,
            "highlightVectorRulesPolygon": {
              "fill": {
                "color": [
                  255,
                  0,
                  127,
                  0.9
                ]
              },
              "stroke": {
                "width": 3,
                "color": [
                  0,
                  204,
                  204,
                  0.9
                ]
              }
            },
            "highlightVectorRulesPointLine": {
              "stroke": {
                "width": 7,
                "color": [
                  0,
                  153,
                  0,
                  0.9
                ]
              },
              "image": {
                "scale": 2
              }
            }
          },
          {
            "type": "routing",
            "icon": "bi-signpost-2",
            "geosearch": {
              "type": "BKG",
              "serviceId": "5",
              "bbox": {
                "CYCLING": "9.6,53.40,10.4,53.84"
              }
            },
            "geosearchReverse": {
              "type": "BKG",
              "serviceId": "5"
            },
            "directionsSettings": {
              "type": "ORS",
              "serviceId": "bkg_ors",
              "speedProfile": "CAR",
              "elevation": true,
              "batchProcessing": {
                "enabled": false,
                "active": false
              }
            },
            "isochronesSettings": {
              "type": "ORS",
              "serviceId": "bkg_ors",
              "speedProfile": "CAR",
              "batchProcessing": {
                "enabled": false,
                "active": false
              }
            },
            "tsrSettings": {
              "type": "TSR",
              "serviceId": "bkg_tsr",
              "speedProfile": "CAR",
              "elevation": true,
              "tsrPointLimit": 50,
              "styleRoute": {
                "fillColor": [50, 169, 232, 1.0]
              }
            }
          },
          {
            "type": "modeler3D"
          },
          {
            "type": "scaleSwitcher"
          },
          {
            "type": "shareView",
            "facebookShare": true,
            "qrShare": true
          },
          {
            "type": "measure"
          },
          {
            "type": "styleVT"
          },
          {
            "type": "coordToolkit",
            "heightLayerId": "19173",
            "heightElementName": "value_0",
            "heightValueWater": "-20",
            "heightValueBuilding": "200",
            "zoomLevel": 5,
            "heightLayerInfo": "Grundlage der Höheninformation ist das \"Digitalge Höhenmodell Hamburg DGM 1\" mit Hohenangaben im Koordinatenrefenerzsystem für Höhenangaben DE_DHHN2016_NH in Metern über Normalhöhennull (NHN).",
            "coordInfo": {
              "title": "Koordinatenreferenzsystem für 2D-Lageangaben, Erläuterungen",
              "explanations": [
                "ETRS89_UTM32, EPSG 4647 (zE-N): Bezugssystem ETRS89, Abbildungsvorschrift UTM, Zone 32",
                "EPSG 25832: Bezugssystem ETRS89, Abbildungsvorschrift UTM, Zone 32, ist identisch mit ETRS89_UTM32 jedoch ohne Angabe der Zonenkennung „32“ beim East-Wert",
                "ETRS89_3GK3: Bezugssystem ETRS89, Abbildungsvorschrift Gauß-Krüger, 3. Meridianstreifen",
                "EPSG 8395: Bezugssystem ETRS89, Abbildungsvorschrift Gauß-Krüger, 3. Meridianstreifen, ist identisch mit ETRS89_3GK3 jedoch ohne Angabe der Streifenkennung „3“ beim Rechtswert",
                "DE_DHDN_3GK3, EPSG 31467: Bezugssystem DHDN, Abbildungsvorschrift Gauß-Krüger, 3. Meridianstreifen"
              ]
            }
          },
          {
            "type": "draw_old",
            "enableAttributesSelector": true,
            "addIconsOfActiveLayers": true
          },
          {
            "type": "wfsSearch",
            "description": "common:modules.wfsSearch.description_parcel",
            "zoomLevel": 7,
            "instances": [
              {
                "title": "common:modules.wfsSearch.parcelSearch",
                "userHelp": "hide",
                "requestConfig": {
                  "gazetteer": {
                    "namespaces": [
                      "http://www.adv-online.de/namespaces/adv/dog",
                      "http://geodienste.hamburg.de/dog_gages/services/wfs_dog?SERVICE=WFS&VERSION=2.0.0&REQUEST=DescribeFeatureType&OUTPUTFORMAT=application/gml+xml;+version=3.2&TYPENAME=dog:Flurstueckskoordinaten&NAMESPACES=xmlns(dog,http://www.adv-online.de/namespaces/adv/dog)"
                    ],
                    "memberSuffix": "member"
                  },
                  "restLayerId": "6",
                  "storedQueryId": "Flurstueck"
                },
                "selectSource": "https://geodienste.hamburg.de/lgv-config/gemarkungen_hh.json",
                "literals": [
                  {
                    "clause": {
                      "type": "and",
                      "literals": [
                        {
                          "field": {
                            "queryType": "equal",
                            "inputLabel": "common:modules.wfsSearch.district",
                            "fieldName": "gemarkung",
                            "usesId": true,
                            "options": "",
                            "required": true
                          }
                        },
                        {
                          "field": {
                            "queryType": "equal",
                            "inputLabel": "common:modules.wfsSearch.parcelNumber",
                            "fieldName": "flurstuecksnummer",
                            "required": true
                          }
                        }
                      ]
                    }
                  }
                ]
              }
            ]
          },
          {
            "type": "bufferAnalysis"
          },
          {
            "type": "layerSlider",
            "layerIds": [
              {
                "title": "common:modules.layerSlider.serviceOne",
                "layerId": "19173"
              },
              {
                "title": "common:modules.layerSlider.serviceTwo",
                "layerId": "2426"
              },
              {
                "title": "common:modules.layerSlider.serviceThree",
                "layerId": "8712"
              },
              {
                "title": "common:modules.layerSlider.serviceFour",
                "layerId": "1711"
              }
            ]
          },
          {
            "type": "shadow",
            "isShadowEnabled": true
          }
        ]
      ]
    },
    "portalFooter": {
      "urls": [
        {
          "bezeichnung": "common:modules.portalFooter.designation",
          "url": "https://geoinfo.hamburg.de/",
          "alias": "Landesbetrieb Geoinformation und Vermessung",
          "alias_mobile": "LGV Hamburg"
        },
        {
          "url": "mailto:LGVGeoPortal-Hilfe@gv.hamburg.de?subject=Kartenunstimmigkeiten%20melden&body=Zur%20weiteren%20Bearbeitung%20bitten%20wir%20Sie%20die%20nachstehenden%20Angaben%20zu%20machen.%20Bei%20Bedarf%20fügen%20Sie%20bitte%20noch%20einen%20Screenshot%20hinzu.%20Vielen%20Dank!%0A%0A1.%20Name:%0A2.%20Telefon:%0A3.%20Anliegen",
          "alias": "common:modules.portalFooter.mapDiscrepancy"
        }
      ],
      "scaleLine": true
    },
    "tree": {
      "singleBaselayer": false,
      "addLayerButton": {
        "active": true,
        "searchBar": {
          "active": true,
          "searchInterfaceInstances": [
            {
              "id":"elasticSearch_0",
              "searchCategory": "Thema (externe Fachdaten)"
            },
            {
              "id": "topicTree",
              "searchCategory": "Thema"
            }
          ]
        }
      },
      "highlightedFeatures": {
        "active": true
      },
      "layerIDsToStyle": [
        {
          "id": "1933",
          "styles": "geofox_stations",
          "name": "Haltestellen",
          "legendURL": "https://geoportal.metropolregion.hamburg.de/legende_mrh/hvv-bus.png"
        },
        {
          "id": "1935",
          "styles": [
            "geofox_Faehre",
            "geofox-bahn",
            "geofox-bus",
            "geofox_BusName"
          ],
          "name": [
            "Fährverbindungen",
            "Bahnlinien",
            "Buslinien",
            "Busliniennummern"
          ],
          "legendURL": [
            "https://geoportal.metropolregion.hamburg.de/legende_mrh/hvv-faehre.png",
            "https://geoportal.metropolregion.hamburg.de/legende_mrh/hvv-bahn.png",
            "https://geoportal.metropolregion.hamburg.de/legende_mrh/hvv-bus.png",
            "https://geoportal.metropolregion.hamburg.de/legende_mrh/hvv-bus.png"
          ]
        }
      ]
    }
  },
  "layerConfig": {
    "baselayer": {
      "elements": [
        {
          "id": "453",
          "name": "Geobasiskarten (HamburgDE)",
          "shortname": "Geobasiskarten",
          "typ": "WMS",
          "visibility": true
        },
        {
          "id": "452",
          "name": "Digitale Orthophotos (belaubt) Hamburg",
          "shortname": "Orthophotos",
          "typ": "WMS",
          "visibility": false,
          "transparency": 30,
          "preview": {
            "zoomLevel": 6,
            "center": "566245.97,5938894.79",
            "radius": 500
          }
        },
        {
          "id": "33787",
          "name": "Geobasiskarten (schwarz-grau)",
          "shortname": "Karte schwarz-grau",
          "visibility": false
        },
        {
          "id": "VectorTile",
          "name": "ArcGIS VectorTile",
          "shortname": "VectorTile",
          "typ": "VectorTile",
          "visibility": false,
          "preview": {
            "src": "./resources/vectorTile.png"
          },
          "gfiAttributes": "showAll",
          "url": "https://test.geoportal-hamburg.de/vt/esri/tile/{z}/{y}/{x}.pbf",
          "epsg": "EPSG:25832",
          "extent": [
            441336.2209999999,
            5915995,
            594002,
            5986767.56699999981
          ],
          "origin": [
            -9497963.94293634221,
            9997963.94293634221
          ],
          "resolutions": [
            39054.5466520950868,
            19527.2733260475434,
            9763.63666302377169,
            4881.81833151188584,
            2440.90916575594292,
            1220.45458287797146,
            610.227291438985731,
            305.113645719492865,
            152.556822859746433,
            76.2784114298732163,
            38.1392057149366082,
            19.0696028574683041,
            9.534801428734152,
            4.767400714367076,
            2.383700357183538,
            1.191850178591769
          ],
          "tileSize": 512,
          "vtStyles": [
            {
              "id": "VectorTile_STYLE",
              "name": "Test",
              "url": "https://test.geoportal-hamburg.de/vt/esri/resources/styles/root.json",
              "defaultStyle": true
            }
          ]
        },
        {
          "id": "VectorTile_basemap_de",
          "name": "Web Vektor",
          "typ": "VectorTile",
          "visibility": false,
          "preview": {
            "src": "./resources/webVector.png"
          },
          "gfiAttributes": "showAll",
          "legendURL": "https://geodienste.hamburg.de/HH_WMS_Geobasiskarten?language=ger&version=1.3.0&service=WMS&request=GetLegendGraphic&sld_version=1.1.0&layer=WMS_Geobasiskarten_Hamburg_N&format=image/png&STYLE=default",
          "url": "https://dev.adv-smart.de/tiles/smarttiles_de_UTM32_dev/{z}/{x}/{y}.pbf",
          "epsg": "EPSG:25832",
          "extent": [
            -46133.17,
            5048875.26857567,
            1206211.10142433,
            6301219.54000000
          ],
          "resolutions": [
            4891.96981025128,
            2445.98490512564,
            1222.99245256282,
            611.496226281410,
            305.748113140705,
            152.874056570353,
            76.4370282851763,
            38.2185141425881,
            19.1092570712941,
            9.55462853564703,
            4.77731426782352,
            2.38865713391176
          ],
          "tileSize": 256,
          "zDirection": -1,
          "vtStyles": [
            {
              "id": "farbe",
              "name": "Farbe",
              "url": "https://sgx.geodatenzentrum.de/gdz_basemapde_vektor/styles/bm_web_col.json",
              "defaultStyle": true
            },
            {
              "id": "grau",
              "name": "Grau",
              "url": "https://sgx.geodatenzentrum.de/gdz_basemapde_vektor/styles/bm_web_gry.json"
            }
          ]
        }
      ]
    },
    "subjectlayer": {
      "elements": [
        {
          "id": [ "20501", "20502", "20503", "20504" ],
          "name": "Gruppe Freizeitrouten und Radfernwege (4 WFS Layer)",
          "typ": "GROUP",
          "styleId": "4515",
          "visibility": true,
          "showInLayerTree": true
        },
        {
          "id": "47",
          "styleId": "47",
          "name": "##O+++O## Ich sollte NIEMALS im Themenbaum sichtbar sein (isNeverVisibleInTree)!",
          "isNeverVisibleInTree": true
       },
        {
          "id": "10220",
          "name": "Dauerzählstellen (Rad) Hamburg",
          "typ": "WMS",
          "visibility": true
        },
        {
          "id": "23555",
          "name": "Satellitenbilder Sentinel-2 CIR",
          "url": "https://geodienste.hamburg.de/HH_WMS-T_Satellitenbilder_Sentinel-2",
          "typ": "WMS",
          "visibility": false
        },
        {
          "id": "18106",
          "name": "Elektro Ladestandorte Hamburg",
          "typ": "SensorThings"
        },
        {
          "id": "4538",
          "name": "ek pv",
          "typ": "WMS",
          "gfiTheme": "solaratlas",
          "visibility": false
        },
        {
          "id": "4905",
          "name": "Schwermetallmessungen",
          "typ": "WMS",
          "visibility": false,
          "gfiTheme" : {
            "name" : "DataTable",
            "params": {
              "isFilterable": true,
              "isSortable": true,
              "enableDownload": true,
              "exportFileName": "Schwermetallmessungen"
            }
          }
        },
        {
          "id": "1420",
          "gfiTheme": "sturmflut",
          "visibility": false
        },
        {
          "id": "3302",
          "name": "Trinkwasser",
          "typ": "WMS",
          "visibility": false
        },
        {
          "id": "8730",
          "name": "Durchschnittliche tägliche Verkehrsstärken (Mo-So)",
          "typ": "WMS",
          "gfiTheme": "verkehrsstaerken",
          "visibility": false
        },
        {
          "id": "2426",
          "name": "Bezirke",
          "typ": "WMS",
          "visibility": true,
          "showInLayerTree": false
        },
        {
          "id": "2425",
          "name": "Stadtteile",
          "typ": "WMS",
          "visibility": false
        },
        {
          "id": "22078",
          "name": "Bewohnerparkgebiete Hamburg",
          "typ": "WFS",
          "visibility": false,
          "styleId": "22078",
          "styleField": "bewirtschaftungsart",
          "searchField": "bwp_name",
          "mouseHoverField": [
            "bwp_name",
            "bewirtschaftungsart"
          ]
        },
        {
          "name": "Emissionen",
          "type": "folder",
          "elements": [
            {
              "name": "Lärmschutzbereiche Flughafen Hamburg (FluLärmHmbV)",
              "type": "folder",
              "elements": [
                {
                  "id": "2431",
                  "visibility": false
                },
                {
                  "id": "2430",
                  "visibility": false
                },
                {
                  "id": "2429"
                },
                {
                  "name": "Überschwemmungsgebiete",
                  "type": "folder",
                  "elements": [
                    {
                      "id": "1103",
                      "visibility": false
                    }
                  ]
                }
              ]
            }
          ]
        },
        {
          "name": "HVV",
          "type": "folder",
          "elements": [
            {
              "id": "1935"
            },
            {
              "id": "1933"
            }
          ]
        },
        {
          "id": "1711",
          "styleId": "1711",
          "name": "Krankenhäuser",
          "typ": "WFS",
          "visibility": false,
          "loadingStrategy": "all",
          "searchField": "name",
          "mouseHoverField": [
            "name",
            "adresse"
          ],
          "featurePrefix": "de.hh.up:",
          "wildCard": "%",
          "singleChar": "#",
          "escapeChar": "!",
          "layerAttribution": "<span>Test: LayerAttribution für Krankenhäuser</span>"
        },
        {
          "id": "2003",
          "styleId": "2003",
          "name": "de.hh.up:nr_f_naturschutzgebiet",
          "typ": "WFS",
          "visibility": false,
          "featurePrefix": "de.hh.up:",
          "wildCard": "%",
          "singleChar": "#",
          "escapeChar": "!"
        },
        {
          "id": "52",
          "styleId": "52",
          "name": "Parkhäuser",
          "typ": "WFS",
          "visibility": false,
          "autoRefresh": 5000
        },
        {
          "id": "8712",
          "styleId": "8712",
          "loadingStrategy": "bbox",
          "typ": "WFS",
          "visibility": false,
          "gfiTheme": "schulinfo",
          "showInLayerTree": true,
          "mouseHoverField": [
            "schulname",
            "kapitelbezeichnung"
          ],
          "searchField": "schulname",
          "additionalInfoField": "adresse_strasse_hausnr",
          "featurePrefix": "de.hh.up:",
          "wildCard": "%",
          "singleChar": "#",
          "escapeChar": "!",
          "layerAttribution": "<span>Test: LayerAttribution für Schulen</span>"
        },
        {
          "id": "19173",
          "name": "Digitales Höhenmodell Hamburg (DGM1)",
          "typ": "WMS",
          "visibility": false
        },
        {
          "id": "27926",
          "styleId": "8712",
          "name": "Schulen (Layertyp OAF)",
          "typ": "OAF",
          "gfiTheme": "schulinfo"
        },
        {
          "id": "18104",
          "styleId": "18104",
          "name": "Anzahl frei verfügbarer E-Lastenräder je StadtRad-Station",
          "typ": "SensorThings",
          "visibility": false
        },
        {
          "id": "20625.90024",
          "styleId": "200_300_400_600_anzahl_sus_primarstufe",
          "name": "Schüler*innen nach Sozialräumen (1 bis 4)",
          "typ": "WFS",
          "visibility": false,
          "gfiAttributes": "showAll",
          "propertyNames": [
            "bezirk_id",
            "bezirk_name",
            "stadtteil_id",
            "stadtteil_name",
            "sozialraum_id",
            "sozialraum_name",
            "anzahl_sus_primarstufe",
            "geom"
          ],
          "gfiTheme": {
            "name": "bildungsatlas",
            "params": {
              "subTheme": "BildungsatlasThemeBalkendiagramm",
              "chartOptions": {
                "anzahl_sus_primarstufe": {
                  "suggestedMin": 0,
                  "suggestedMax": 3000,
                  "stepSize": 500
                }
              }
            }
          }
        },
        {
          "id": "753",
          "styleId": "753",
          "typ": "WFS",
          "visibility": false,
          "mouseHoverField": "Name",
          "loadingStrategy": "bbox"
        },
        {
          "id": "GeoJSON",
          "name": "Beiträge (GeoJSON)",
          "typ": "GeoJSON",
          "visibility": false,
          "url": "./resources/example_geojson.json",
          "styleId": "contributions",
          "legend": true,
          "gfiAttributes": "showAll",
          "gfiTheme": "dipas"
        },
        {
          "id": "StaticImage",
          "name": "Lärmberechnung",
          "extent": [
            568426.27,
            5931985.58,
            569614.86,
            5933174.11
          ],
          "typ": "StaticImage",
          "visibility": false,
          "url": "https://geodienste.hamburg.de/lgv-config/img/Laerm-Test_300dpi.png",
          "legend": [
            "https://geodienste.hamburg.de/lgv-config/img/Legende_Laermberechnung_Tag.png",
            "https://geodienste.hamburg.de/lgv-config/img/Legende_Laermberechnung_Nacht.png"
          ],
          "crs": "EPSG:25832"
        },
        {
          "id": "2928",
          "styleId": "4515",
          "name": "Linienhafte Biotope",
          "legend": true,
          "featurePrefix": "de.hh.up:",
          "wildCard": "%",
          "singleChar": "#",
          "escapeChar": "!"
        },
        {
          "id": "1534",
          "name": "Grünflächen (WebGL)",
          "renderer": "webgl",
          "typ": "WFS",
          "styleId": "1534",
          "isPointLayer": false,
          "gfiAttributes": "showAll",
          "legendURL": "",
          "loadingStrategy": "all",
          "mouseHoverField": [
            "belegenheit",
            "nutzung"
          ]
        },
        {
          "id": "webgl_dipas",
          "name": "DIPAS Data GeoJSON (WebGL)",
          "renderer": "webgl",
          "typ": "GeoJSON",
          "url": "./webgl_assets/dipas.test.geojson",
          "format": "text/html; charset=utf-8",
          "minScale": "0",
          "maxScale": "2500000",
          "gfiAttributes": "showAll",
          "layerAttribution": "nicht vorhanden",
          "legendURL": "",
          "loadingStrategy": "all",
          "hitTolerance": 20,
          "isPointLayer": true,
          "bboxGeometry": [
            568426.27,
            5931985.58,
            569614.86,
            5933174.11
          ],
          "mouseHoverField": [
            "Category",
            "Value"
          ],
          "style": {
            "circle-rotate-with-view": false,
            "circle-radius": [
              "interpolate",
              ["linear"],
              ["get", "Total_votes"],
              0,
              6,
              18,
              24
            ],
            "circle-fill-color": [
              "interpolate",
              ["linear"],
              ["get", "compound"],
              -1,
              [
                240,
                40,
                30
              ],
              1,
              [
                0,
                200,
                60
              ]
            ],
            "circle-displacement": [
              0,
              0
            ],
            "circle-opacity": [
              "interpolate",
              ["linear"],
              ["get", "Total_votes"],
              40000,
              0.6,
              2000000,
              0.92
            ]
          }
        },
        {
          "name": "3D Daten",
          "type": "folder",
          "elements": [
            {
              "name": "3D Basisdaten",
              "type": "folder",
              "elements": [
                {
                  "id": "12883",
                  "name": "Gelände",
                  "typ": "Terrain3D",
                  "visibility": true
                }
              ]
            },
            {
              "name": "3D Gebäudedaten",
              "type": "folder",
              "elements": [
                {
                  "id": "16101",
                  "name": "Brückenflächen HH",
                  "typ": "TileSet3D",
                  "visibility": true
                },
                {
                  "id": "12884",
                  "name": "Gebäude LoD2",
                  "typ": "TileSet3D",
                  "gfiAttributes": "showAll",
                  "visibility": true,
                  "styleId": "3DTileSetStyle"
                },
                {
                  "id": "16100",
                  "name": "Hauptkirchen",
                  "visibility": true,
                  "hiddenFeatures": [
                    "DEHHALKAJ00011uJ",
                    "DEHHALKAJ0000yd2",
                    "DEHHALKAJ0000ovW",
                    "DEHHALKAJ0000owm",
                    "DEHHALKAJ0000pO5"
                  ]
                },
                {
                  "id": "Entities3D",
                  "name": "3D-Entities Testlayer",
                  "typ": "Entities3D",
                  "visibility": false,
                  "layerAttribution": "Test 3D layerAttribution",
                  "entities": [
                    {
                      "url": "https://daten-hamburg.de/gdi3d/datasource-data/Simple_Building.glb",
                      "attributes": {
                        "name": "Einfaches Haus in Planten und Blomen"
                      },
                      "latitude": 53.5631,
                      "longitude": 9.9800,
                      "height": 12,
                      "heading": 0,
                      "pitch": 0,
                      "roll": 0,
                      "scale": 5,
                      "allowPicking": true,
                      "show": true
                    }
                  ]
                }
              ]
            }
          ]
        }
      ]
    }
  }
}
