[
  {
    "id" : "20501",
    "name" : "de.hh.up:freizeitroute3",
    "url" : "https://geodienste.hamburg.de/HH_WFS_Freizeitrouten",
    "typ" : "WFS",
    "featureType" : "freizeitroute3",
    "outputFormat" : "XML",
    "version" : "1.1.0",
    "featureNS" : "https://registry.gdi-de.org/id/de.hh.up",
    "gfiAttributes" : "showAll",
    "gfiTheme" : "default",
    "layerAttribution" : "nicht vorhanden",
    "legendURL" : "",
    "hitTolerance" : "",
    "datasets" : [
       {
          "md_id" : "67611D79-37ED-40DD-B7A2-A54080DB7563",
          "csw_url" : "https://hmdk.metaver.de/csw",
          "show_doc_url" : "https://hmdk.metaver.de/trefferanzeige?docuuid=",
          "rs_id" : "https://registry.gdi-de.org/id/de.hh/618950ed-5b69-4ef8-afb1-c55052a84d3f",
          "md_name" : "Freizeitrouten und Radfernwege Hamburg",
          "bbox" : "461468.96892897453,5916367.229806512,587010.9095989474,5980347.755797674",
          "kategorie_opendata" : [ "Verkehr" ],
          "kategorie_inspire" : [ "Verkehrsnetze" ],
          "kategorie_organisation" : "Behörde für Umwelt, Klima, Energie und Agrarwirtschaft (BUKEA)"
       }
    ],
    "urlIsVisible" : true
 },
  {
    "id": "lgvline",
    "name": "de.hh.up:deetest linie",
    "url": "https://qs-geodienste.hamburg.de/HH_WFS_deetest",
    "typ": "WFS",
    "featureType": "deetest_linie",
    "featurePrefix": "de.hh.up",
    "outputFormat" : "image/png",
    "version": "1.1.0",
    "featureNS": "https://registry.gdi-de.org/id/de.hh.up",
    "gfiAttributes": "showAll",
    "gfiTheme": "default",
    "layerAttribution":"nicht vorhanden",
	"legendURL":"",
	"hitTolerance":"",
	"datasets":[],
	"urlIsVisible":true
  },
  {
    "id": "lgvpolygon",
    "name": "de.hh.up:deetest polygon",
    "url": "https://qs-geodienste.hamburg.de/HH_WFS_deetest",
    "typ": "WFS",
    "featureType": "deetest_polygon",
    "featurePrefix": "de.hh.up",
    "outputFormat": "image/png",
    "version": "1.1.0",
    "featureNS": "https://registry.gdi-de.org/id/de.hh.up",
    "gfiAttributes": "showAll",
    "gfiTheme": "default",
    "layerAttribution":"nicht vorhanden",
	"legendURL":"",
	"hitTolerance":"",
	"datasets":[],
	"urlIsVisible":true
  },
  {
    "id": "lgvpoint",
    "name": "de.hh.up:deetest punkte",
    "url": "https://qs-geodienste.hamburg.de/HH_WFS_deetest",
    "typ": "WFS",
    "featureType": "deetest_punkte",
    "featurePrefix": "de.hh.up",
    "outputFormat": "image/png",
    "version": "1.1.0",
    "featureNS": "https://registry.gdi-de.org/id/de.hh.up",
    "gfiAttributes": "showAll",
    "gfiTheme": "default",
    "layerAttribution":"nicht vorhanden",
	"legendURL":"",
	"hitTolerance":"",
	"datasets":[],
	"urlIsVisible":true
  },
  {
    "id": "topplus_wmts",
    "name": "TopPlusOpen",
    "capabilitiesUrl": "https://sgx.geodatenzentrum.de/wmts_topplus_open/1.0.0/WMTSCapabilities.xml",
    "optionsFromCapabilities": true,
    "urls": [
      "https://sgx.geodatenzentrum.de/wmts_topplus_open/tile/1.0.0/web/{Style}/{TileMatrixSet}/{TileMatrix}/{TileRow}/{TileCol}.png"
    ],
    "typ": "WMTS",
    "layers": "web",
    "format": "image/png",
    "version": "1.0.0",
    "origin": [
      -3803165.98427,
      8805908.08285
    ],
    "isBaseLayer": true,
    "style": "default",
    "transparent": false,
    "tileSize": "256",
    "minScale": "0",
    "maxScale": "9999999999",
    "tileMatrixSet": "EU_EPSG_25832_TOPPLUS",
    "coordinateSystem": "EPSG:25832",
    "legend": [
      "https://sg.geodatenzentrum.de/wms_topplus_open?styles=&layer=web&service=WMS&format=image/png&sld_version=1.1.0&request=GetLegendGraphic&version=1.1.1"
    ],
    "requestEncoding": "REST",
    "resLength": "13",
    "layerAttribution": "Quellenvermerk: © Bundesamt für Kartographie und Geodäsie",
    "datasets": [
      {
        "md_id": "A1C4E929-3EC9-4758-9677-DB4970D226AB",
        "csw_url": " https://gdk.gdi-de.org/gdi-de/srv/ger/csw?",
        "show_doc_url": "https://gdk.gdi-de.org/gdi-de/srv/ger/catalog.search#/metadata/"
      }
    ]
  },
  {
    "id": "19173",
    "name": "Digitales Höhenmodell Hamburg (DGM1)",
    "url": "https://geodienste.hamburg.de/HH_WMS_DGM1",
    "typ": "WMS",
    "layers": "WMS_DGM1_HAMBURG",
    "format": "image/png",
    "version": "1.3.0",
    "singleTile": false,
    "transparent": true,
    "transparency": 0,
    "urlIsVisible": true,
    "tilesize": 512,
    "gutter": 0,
    "minScale": "0",
    "maxScale": "2500000",
    "infoFormat": "text/html",
    "gfiAttributes": "showAll",
    "gfiTheme": "default",
    "layerAttribution": "nicht vorhanden",
    "legendURL": "https://geodienste.hamburg.de/HH_WMS_DGM1?language=ger&version=1.3.0&service=WMS&request=GetLegendGraphic&sld_version=1.1.0&layer=WMS_DGM1_HAMBURG&format=image/png&STYLE=default",
    "cache": false,
    "featureCount": 1,
    "datasets": [
      {
        "md_id": "A39B4E86-15E2-4BF7-BA82-66F9913D5640",
        "csw_url": "https://hmdk.metaver.de/csw",
        "show_doc_url": "https://hmdk.metaver.de/trefferanzeige?docuuid=",
        "rs_id": "https://registry.gdi-de.org/id/de.hh/6D10BE89-636D-4359-8B27-4AB4DCA02F3A",
        "md_name": "Digitales Höhenmodell Hamburg DGM 1",
        "bbox": "461468.96892897453,5916367.229806512,587010.9095989474,5980347.755797674",
        "kategorie_opendata": [
          "Umwelt"
        ],
        "kategorie_inspire": [
          "Höhe"
        ],
        "kategorie_organisation": "Landesbetrieb Geoinformation und Vermessung"
      }
    ],
    "notSupportedIn3D": false
  },
  {
    "id": "452",
    "name": "Digitale Orthophotos (belaubt) Hamburg",
    "url": "https://geodienste.hamburg.de/HH_WMS_DOP_belaubt",
    "typ": "WMS",
    "layers": "Digitale Orthophotos belaubt",
    "format": "image/png",
    "version": "1.3.0",
    "singleTile": false,
    "transparent": true,
    "transparency": 0,
    "urlIsVisible": true,
    "tilesize": 512,
    "gutter": 0,
    "minScale": "0",
    "maxScale": "2500000",
    "gfiAttributes": "ignore",
    "gfiTheme": "default",
    "layerAttribution": "nicht vorhanden",
    "legendURL": "ignore",
    "cache": false,
    "featureCount": 1,
    "datasets": [
      {
        "md_id": "B3008A4D-BA8E-4FDB-8FDD-559D02975BD7",
        "csw_url": "https://metaver.de/csw",
        "show_doc_url": "https://metaver.de/trefferanzeige?cmd=doShowDocument&docuuid=",
        "rs_id": "https://registry.gdi-de.org/id/de.hh/2BEDFB21-C533-4C67-AF0F-66A5213F9B7B",
        "md_name": "Digitale Orthophotos (belaubt) Hamburg",
        "bbox": "461468.96892897453,5916367.229806512,587010.9095989474,5980347.755797674",
        "kategorie_opendata": [
          "Umwelt"
        ],
        "kategorie_inspire": [
          "Orthofotografie"
        ],
        "kategorie_organisation": "Landesbetrieb Geoinformation und Vermessung"
      }
    ],
    "notSupportedIn3D": false
  },
  {
    "id": "453",
    "name": "Geobasiskarten (HamburgDE)",
    "url": "https://geodienste.hamburg.de/HH_WMS_HamburgDE",
    "typ": "WMS",
    "layers": "Geobasiskarten_HHde",
    "format": "image/png",
    "version": "1.3.0",
    "singleTile": false,
    "transparent": true,
    "transparency": 0,
    "urlIsVisible": true,
    "tilesize": 512,
    "gutter": 0,
    "minScale": "0",
    "maxScale": "2500000",
    "gfiAttributes": "ignore",
    "gfiTheme": "default",
    "layerAttribution": "nicht vorhanden",
    "legendURL": "ignore",
    "cache": false,
    "featureCount": 1,
    "datasets": [
      {
        "md_id": "B6A59A2B-2D40-4676-9094-0EB73039ED34",
        "csw_url": "https://metaver.de/csw",
        "show_doc_url": "https://metaver.de/trefferanzeige?cmd=doShowDocument&docuuid=",
        "rs_id": "https://registry.gdi-de.org/id/de.hh/001719df-6619-40b7-aefe-32e8aaf49337",
        "md_name": "GeoBasisKarten Hamburg",
        "bbox": "466251.4292773354,5844577.894672247,661887.1257872104,6042030.30978004",
        "kategorie_opendata": [
          "Umwelt"
        ],
        "kategorie_inspire": [
          "kein INSPIRE-Thema"
        ],
        "kategorie_organisation": "Landesbetrieb Geoinformation und Vermessung"
      }
    ],
    "notSupportedIn3D": false
  },
  {
    "id": "682",
    "name": "Kindertagesstätten",
    "url": "https://geodienste.hamburg.de/HH_WMS_KitaEinrichtung",
    "typ": "WMS",
    "layers": "KitaEinrichtungen",
    "format": "image/png",
    "version": "1.3.0",
    "singleTile": false,
    "transparent": true,
    "transparency": 0,
    "urlIsVisible": true,
    "tilesize": 512,
    "gutter": 5,
    "minScale": "0",
    "maxScale": "2500000",
    "infoFormat": "text/xml",
    "gfiAttributes": {
      "Name": "Name der Einrichtung",
      "Strasse": "Straße",
      "Hausnr": "Hausnummer",
      "PLZ": "Postleitzahl"
    },
    "gfiTheme": "default",
    "layerAttribution": "nicht vorhanden",
    "legendURL": "",
    "cache": false,
    "featureCount": 1,
    "datasets": [
      {
        "md_id": "C1AC42B2-C104-45B8-91F9-DA14C3C88A1F",
        "csw_url": "https://metaver.de/csw",
        "show_doc_url": "https://metaver.de/trefferanzeige?cmd=doShowDocument&docuuid=",
        "rs_id": "https://registry.gdi-de.org/id/de.hh/6fdc7be8-520c-44ee-8e9a-855bac1b6a6b",
        "md_name": "Kita Einrichtungen Hamburg",
        "bbox": "461468.96892897453,5916367.229806512,587010.9095989474,5980347.755797674",
        "kategorie_opendata": [
          "Bevölkerung und Gesellschaft",
          "Regionen und Städte"
        ],
        "kategorie_inspire": [
          "Versorgungswirtschaft und staatliche Dienste"
        ],
        "kategorie_organisation": "Behörde für Arbeit, Gesundheit, Soziales, Familie und Integration"
      }
    ],
    "notSupportedIn3D": false
  },
  {
    "id": "33780",
    "name": "Geobasiskarten (farbig)",
    "url": "https://geodienste.hamburg.de/HH_WMS_Geobasiskarten",
    "typ": "WMS",
    "layers": "geobasiskarten_farbig",
    "format": "image/png",
    "version": "1.3.0",
    "singleTile": false,
    "transparent": true,
    "transparency": 0,
    "urlIsVisible": true,
    "tilesize": 512,
    "gutter": 0,
    "minScale": "0",
    "maxScale": "2500000",
    "gfiAttributes": "ignore",
    "gfiTheme": "default",
    "layerAttribution": "nicht vorhanden",
    "legendURL": "https://geodienste.hamburg.de/HH_WMS_Geobasiskarten?language=ger&version=1.3.0&service=WMS&request=GetLegendGraphic&sld_version=1.1.0&layer=geobasiskarten_farbig&format=image/png&STYLE=default",
    "cache": false,
    "featureCount": 1,
    "datasets": [
        {
            "md_id": "B6A59A2B-2D40-4676-9094-0EB73039ED34",
            "csw_url": "https://metaver.de/csw",
            "show_doc_url": "https://metaver.de/trefferanzeige?cmd=doShowDocument&docuuid=",
            "rs_id": "https://registry.gdi-de.org/id/de.hh/001719df-6619-40b7-aefe-32e8aaf49337",
            "md_name": "GeoBasisKarten Hamburg",
            "bbox": "466251.4292773354,5844577.894672247,661887.1257872104,6042030.30978004",
            "kategorie_opendata": [
                "Umwelt"
            ],
            "kategorie_inspire": [
                "kein INSPIRE-Thema"
            ],
            "kategorie_organisation": "Landesbetrieb Geoinformation und Vermessung"
        }
    ],
    "notSupportedFor3DNeu": false
  },
  {
    "id": "1132",
    "name": "app:poi",
    "url": "https://geodienste.hamburg.de/HH_WFS_Stadtgruen",
    "typ": "WFS",
    "featureType": "poi",
    "outputFormat": "XML",
    "version": "1.1.0",
    "featureNS": "http://www.deegree.org/app",
    "gfiAttributes": {
      "Name": "Name",
      "titel": "Titel",
      "kurztext": "Beschreibung",
      "internet": "Weitere Informationen",
      "bild": "Bild",
      "copyright": "Copyright"
    },
    "gfiTheme": "default",
    "layerAttribution": "nicht vorhanden",
    "legendURL": "",
    "hitTolerance": "",
    "datasets": [
      {
        "md_id": "4E67DF32-AAC0-4410-A215-4110F8D50BBD",
        "csw_url": "https://metaver.de/csw",
        "show_doc_url": "https://metaver.de/trefferanzeige?cmd=doShowDocument&docuuid=",
        "rs_id": "https://registry.gdi-de.org/id/de.hh/e085712c-1cce-49b6-a4c3-c28e58a76da4",
        "md_name": "100 Jahre Stadtgrün - Stadtpark und Volkspark",
        "bbox": "461468.96892897453,5916367.229806512,587010.9095989474,5980347.755797674",
        "kategorie_opendata": [
          "Bildung, Kultur und Sport",
          "Umwelt"
        ],
        "kategorie_inspire": [
          "kein INSPIRE-Thema"
        ],
        "kategorie_organisation": "Behörde für Umwelt, Klima, Energie und Agrarwirtschaft (BUKEA)"
      }
    ],
    "urlIsVisible": true
  },
  {
    "id": "1133",
    "name": "app:strecken",
    "url": "https://geodienste.hamburg.de/HH_WFS_Stadtgruen",
    "typ": "WFS",
    "featureType": "strecken",
    "outputFormat": "XML",
    "version": "1.1.0",
    "featureNS": "http://www.deegree.org/app",
    "gfiAttributes": "showAll",
    "gfiTheme": "default",
    "layerAttribution": "nicht vorhanden",
    "legendURL": "",
    "hitTolerance": "",
    "datasets": [
      {
        "md_id": "4E67DF32-AAC0-4410-A215-4110F8D50BBD",
        "csw_url": "https://metaver.de/csw",
        "show_doc_url": "https://metaver.de/trefferanzeige?cmd=doShowDocument&docuuid=",
        "rs_id": "https://registry.gdi-de.org/id/de.hh/e085712c-1cce-49b6-a4c3-c28e58a76da4",
        "md_name": "100 Jahre Stadtgrün - Stadtpark und Volkspark",
        "bbox": "461468.96892897453,5916367.229806512,587010.9095989474,5980347.755797674",
        "kategorie_opendata": [
          "Bildung, Kultur und Sport",
          "Umwelt"
        ],
        "kategorie_inspire": [
          "kein INSPIRE-Thema"
        ],
        "kategorie_organisation": "Behörde für Umwelt, Klima, Energie und Agrarwirtschaft (BUKEA)"
      }
    ],
    "urlIsVisible": true
  },
  {
    "id": "1711",
    "name": "Krankenhäuser",
    "url": "https://geodienste.hamburg.de/HH_WFS_Krankenhaeuser",
    "typ": "WFS",
    "featureType": "gesundheit_krankenhaeuser",
    "outputFormat": "XML",
    "version": "1.1.0",
    "featureNS": "https://registry.gdi-de.org/id/de.hh.up",
    "gfiAttributes": {
      "name": "Name",
      "zusatz_einrichtungsname": "Zusatz zur Einrichtung",
      "adresse": "Adresse",
      "ort": "Ort",
      "homepage": "Link",
      "krankenhausverzeichnis": "Krankenhausverzeichnis",
      "traegerschaft": "Trägerschaft",
      "art_der_stationaeren_versorgung": "Art der stationären Versorgung",
      "planbetten": "Planbetten",
      "teilstationaere_behandlungsplaetze": "Teilstationäre Behandlungsplätze",
      "not_und_unfallversorgung": "Not- und Unfallversorgung",
      "geburtshilfe": "Geburtshilfe",
      "geburtshilfe_versorgungsstufe": "Geburtshilfe-Versorgungsstufe",
      "anmerkung_ort": "Hinweis",
      "stand": "Stand"
    },
    "gfiTheme": "default",
    "layerAttribution": "nicht vorhanden",
    "legendURL": "",
    "hitTolerance": 0,
    "datasets": [
      {
        "md_id": "9329C2CB-4552-4780-B343-0CC847538896",
        "csw_url": "https://metaver.de/csw",
        "show_doc_url": "https://metaver.de/trefferanzeige?cmd=doShowDocument&docuuid=",
        "rs_id": "https://registry.gdi-de.org/id/de.hh/010d7370-5306-4b63-983b-59cdd6e94c3c",
        "md_name": "Krankenhäuser Hamburg",
        "bbox": "461468.96892897453,5916367.229806512,587010.9095989474,5980347.755797674",
        "kategorie_opendata": [
          "Gesundheit"
        ],
        "kategorie_inspire": [
          "Versorgungswirtschaft und staatliche Dienste"
        ],
        "kategorie_organisation": "Behörde für Arbeit, Gesundheit, Soziales, Familie und Integration"
      }
    ],
    "urlIsVisible": true
  },
  {
    "id": "1731",
    "name": "Krankenhäuser",
    "url": "https://geodienste.hamburg.de/HH_WMS_Krankenhaeuser",
    "typ": "WMS",
    "layers": "krankenhaeuser",
    "format": "image/png",
    "version": "1.3.0",
    "singleTile": false,
    "transparent": true,
    "transparency": 0,
    "urlIsVisible": true,
    "tilesize": 512,
    "gutter": 7,
    "minScale": "0",
    "maxScale": "2500000",
    "infoFormat": "text/xml",
    "gfiAttributes": {
      "name": "Name",
      "zusatz_einrichtungsname": "Zusatz zur Einrichtung",
      "adresse": "Adresse",
      "ort": "Ort",
      "homepage": "Link",
      "krankenhausverzeichnis": "Krankenhausverzeichnis",
      "traegerschaft": "Trägerschaft",
      "art_der_stationaeren_versorgung": "Art der stationären Versorgung",
      "planbetten": "Planbetten",
      "teilstationaere_behandlungsplaetze": "Teilstationäre Behandlungsplätze",
      "not_und_unfallversorgung": "Not- und Unfallversorgung",
      "geburtshilfe": "Geburtshilfe",
      "geburtshilfe_versorgungsstufe": "Geburtshilfe-Versorgungsstufe",
      "anmerkung_ort": "Hinweis",
      "stand": "Stand"
    },
    "gfiTheme": "default",
    "layerAttribution": "nicht vorhanden",
    "legendURL": "",
    "cache": false,
    "featureCount": 2,
    "datasets": [
      {
        "md_id": "9329C2CB-4552-4780-B343-0CC847538896",
        "csw_url": "https://metaver.de/csw",
        "show_doc_url": "https://metaver.de/trefferanzeige?cmd=doShowDocument&docuuid=",
        "rs_id": "https://registry.gdi-de.org/id/de.hh/010d7370-5306-4b63-983b-59cdd6e94c3c",
        "md_name": "Krankenhäuser Hamburg",
        "bbox": "461468.96892897453,5916367.229806512,587010.9095989474,5980347.755797674",
        "kategorie_opendata": [
          "Gesundheit"
        ],
        "kategorie_inspire": [
          "Versorgungswirtschaft und staatliche Dienste"
        ],
        "kategorie_organisation": "Behörde für Arbeit, Gesundheit, Soziales, Familie und Integration"
      }
    ],
    "notSupportedIn3D": false
  },
  {
    "id": "2003",
    "name": "de.hh.up:nr f naturschutzgebiet",
    "url": "https://geodienste.hamburg.de/HH_WFS_Schutzgebiete",
    "typ": "WFS",
    "featureType": "nr_f_naturschutzgebiet",
    "outputFormat": "XML",
    "version": "1.1.0",
    "featureNS": "https://registry.gdi-de.org/id/de.hh.up",
    "gfiAttributes": "showAll",
    "gfiTheme": "default",
    "layerAttribution": "nicht vorhanden",
    "legendURL": "",
    "hitTolerance": "",
    "datasets": [
      {
        "md_id": "8761AF79-641F-4E64-AE4D-280FAAEF4EC2",
        "csw_url": "https://metaver.de/csw",
        "show_doc_url": "https://metaver.de/trefferanzeige?cmd=doShowDocument&docuuid=",
        "rs_id": "https://registry.gdi-de.org/id/de.hh/d0361a3c-27ed-4c5a-bcbe-08a4a3793f29",
        "md_name": "Naturschutzgebiete in Hamburg",
        "bbox": "461468.96892897453,5916367.229806512,587010.9095989474,5980347.755797674",
        "kategorie_opendata": [
          "Umwelt"
        ],
        "kategorie_inspire": [
          "Schutzgebiete"
        ],
        "kategorie_organisation": "Behörde für Umwelt, Klima, Energie und Agrarwirtschaft (BUKEA)"
      }
    ],
    "urlIsVisible": true
  },
  {
    "id": "2426",
    "name": "Bezirke",
    "url": "https://geodienste.hamburg.de/HH_WMS_Verwaltungsgrenzen",
    "typ": "WMS",
    "layers": "bezirke",
    "format": "image/png",
    "version": "1.3.0",
    "singleTile": true,
    "transparent": true,
    "transparency": 0,
    "urlIsVisible": true,
    "tilesize": 512,
    "gutter": 0,
    "minScale": "0",
    "maxScale": "2500000",
    "infoFormat": "text/xml",
    "gfiAttributes": {
      "bezirk": "Bezirk",
      "bezirk_name": "Bezirksname"
    },
    "gfiTheme": "default",
    "layerAttribution": "nicht vorhanden",
    "legendURL": "",
    "cache": false,
    "featureCount": 1,
    "datasets": [
      {
        "md_id": "F35EAC11-C236-429F-B1BF-751C0C18E8B7",
        "csw_url": "https://metaver.de/csw",
        "show_doc_url": "https://metaver.de/trefferanzeige?cmd=doShowDocument&docuuid=",
        "rs_id": "https://registry.gdi-de.org/id/de.hh/2e348904-17de-48fd-9376-8f6fd2750feb",
        "md_name": "ALKIS Verwaltungsgrenzen Hamburg",
        "bbox": "461468.96892897453,5916367.229806512,587010.9095989474,5980347.755797674",
        "kategorie_opendata": [
          "Umwelt"
        ],
        "kategorie_inspire": [
          "kein INSPIRE-Thema"
        ],
        "kategorie_organisation": "Landesbetrieb Geoinformation und Vermessung"
      }
    ],
    "notSupportedIn3D": false
  },
  {
    "id": "3302",
    "name": "Trinkwasser",
    "url": "https://geodienste.hamburg.de/HH_WMS_Trinkwasserdaten",
    "typ": "WMS",
    "layers": "trinkwasser",
    "format": "image/png",
    "version": "1.3.0",
    "singleTile": false,
    "transparent": true,
    "transparency": 0,
    "urlIsVisible": true,
    "tilesize": 512,
    "gutter": 15,
    "minScale": "2000",
    "maxScale": "10000",
    "infoFormat": "text/xml",
    "gfiAttributes": {
      "probenahmestelle_probe_entnahmedatum": "Entnahmedatum",
      "bezirk": "Bezirk",
      "stadtteil": "Stadtteil",
      "versorgungsgebiet": "Versorgungsgebiet",
      "coliforme_bakterien": "Coliforme Bakterien",
      "coliforme_bakterien_grenzwertwarnung": "Coliforme Bakterien Grenzwertwarnung",
      "coliforme_bakterien_mpn": "Coliforme Bakterien MPN",
      "coliforme_bakterien_mpn_grenzwertwarnung": "Coliforme Bakterien MPN Grenzwertwarnung",
      "escherichia_coli": "Escherichia coli",
      "escherichia_coli_grenzwertwarnung": "Escherichia coli Grenzwertwarnung",
      "escherichia_coli__e_coli__mpn": "Escherichia coli (E.coli) MPN",
      "escherichia_coli__e_coli__mpn_grenzwertwarnung": "Escherichia coli (E.coli) MPN Grenzwertwarnung",
      "koloniezahl_36c__trinkwv_2001_anlage_5_i_d_bb___trinkwv_00": "Koloniezahl, 36°C",
      "koloniezahl_36c__trinkwv_2001_anlage_5_i_d_bb___trinkwv_19": "Koloniezahl, 36°C Grenzwertwarnung",
      "koloniezahl_20c__trinkwv_1990_": "Koloniezahl, 20°C",
      "koloniezahl_20c__trinkwv_1990__grenzwertwarnung": "Koloniezahl, 20°C Grenzwertwarnung",
      "intestinale_enterokokken": "intestinale Enterokokken",
      "intestinale_enterokokken_grenzwertwarnung": "intestinale Enterokokken Grenzwertwarnung",
      "blei": "Blei",
      "blei_grenzwertwarnung": "Blei Grenzwertwarnung",
      "kupfer_gesamt": "Kupfer, gesamt",
      "kupfer_gesamt_grenzwertwarnung": "Kupfer, gesamt Grenzwertwarnung",
      "nickel": "Nickel",
      "nickel_grenzwertwarnung": "Nickel Grenzwertwarnung",
      "cadmium": "Cadmium",
      "cadmium_grenzwertwarnung": "Cadmium Grenzwertwarnung",
      "chrom_gesamt": "Chrom, gesamt",
      "chrom_gesamt_grenzwertwarnung": "Chrom, gesamt Grenzwertwarnung",
      "antimon": "Antimon",
      "antimon_grenzwertwarnung": "Antimon Grenzwertwarnung",
      "arsen": "Arsen",
      "arsen_grenzwertwarnung": "Arsen Grenzwertwarnung",
      "ammonium": "Ammonium",
      "ammonium_grenzwertwarnung": "Ammonium Grenzwertwarnung",
      "calcium": "Calcium",
      "calcium_grenzwertwarnung": "Calcium Grenzwertwarnung",
      "chlorid": "Chlorid",
      "chlorid_grenzwertwarnung": "Chlorid Grenzwertwarnung",
      "aluminium_gesamt": "Aluminium, gesamt",
      "aluminium_gesamt_grenzwertwarnung": "Aluminium, gesamt Grenzwertwarnung",
      "bor": "Bor",
      "bor_grenzwertwarnung": "Bor Grenzwertwarnung",
      "bromat": "Bromat",
      "eisen_gesamt": "Eisen, gesamt",
      "eisen_gesamt_grenzwertwarnung": "Eisen, gesamt Grenzwertwarnung",
      "mangan_gesamt": "Mangan, gesamt",
      "mangan_gesamt_grenzwertwarnung": "Mangan, gesamt Grenzwertwarnung",
      "gesamthaerte": "Gesamthärte",
      "gesamthaerte_grenzwertwarnung": "Gesamthärte Grenzwertwarnung",
      "kalium": "Kalium",
      "kalium_grenzwertwarnung": "Kalium Grenzwertwarnung",
      "magnesium": "Magnesium",
      "magnesium_grenzwertwarnung": "Magnesium Grenzwertwarnung",
      "natrium": "Natrium",
      "natrium_grenzwertwarnung": "Natrium Grenzwertwarnung",
      "nitrat": "Nitrat",
      "nitrat_grenzwertwarnung": "Nitrat Grenzwertwarnung",
      "nitrit": "Nitrit",
      "nitrit_grenzwertwarnung": "Nitrit Grenzwertwarnung",
      "ph_wert": "ph-Wert",
      "ph_wert_grenzwertwarnung": "ph-Wert Grenzwertwarnung",
      "elektrische_leitfaehigkeit_bei_20c": "elektrische Leitfähigkeit bei 20°C",
      "elektrische_leitfaehigkeit_bei_20c_grenzwertwarnung": "elektrische Leitfähigkeit bei 20°C Grenzwertwarnung",
      "fluorid": "Fluorid",
      "fluorid_grenzwertwarnung": "Fluorid Grenzwertwarnung",
      "quecksilber": "Quecksilber",
      "quecksilber_grenzwertwarnung": "Quecksilber Grenzwertwarnung",
      "trichlorethen": "Trichlorethen",
      "trichlorethen_grenzwertwarnung": "Trichlorethen Grenzwertwarnung",
      "dichlorethan": "1,2-Dichlorethan",
      "dichlorethan_grenzwertwarnung": "1,2-Dichlorethan Grenzwertwarnung",
      "vinylchlorid": "Vinylchlorid",
      "vinylchlorid_grenzwertwarnung": "Vinylchlorid Grenzwertwarnung",
      "summe_polycyclische_aromatische_kohlenwasserst__2356": "Summe polycyclische aromatische Kohlenwasserst. 2,3,5,6",
      "summe_polycyclische_aromatische_kohlenwasserst__2356_grenzwe": "Summe polycyclische aromatische Kohlenwasserst. 2,3,5,6 Grenzwertwarnung",
      "selen": "Selen",
      "selen_grenzwertwarnung": "Selen Grenzwertwarnung",
      "sulfat": "Sulfat",
      "sulfat_grenzwertwarnung": "Sulfat Grenzwertwarnung",
      "summe_trihalogenmethane": "Summe Trihalogenmethane",
      "summe_trihalogenmethane_grenzwertwarnung": "Summe Trihalogenmethane Grenzwertwarnung",
      "gesamter_organisch_gebundener_kohlenstoff": "gesamter organisch gebundener Kohlenstoff",
      "gesamter_organisch_gebundener_kohlenstoff_grenzwertwarnung": "gesamter organisch gebundener Kohlenstoff Grenzwertwarnung",
      "uran": "Uran",
      "uran_grenzwertwarnung": "Uran Grenzwertwarnung",
      "summe_pflanzenschutzmittel": "Summe Pflanzenschutzmittel",
      "summe_pflanzenschutzmittel_grenzwertwarnung": "Summe Pflanzenschutzmittel Grenzwertwarnung",
      "benzo_a_pyren": "Benzo[a]pyren",
      "benzo_a_pyren_grenzwertwarnung": "Benzo[a]pyren Grenzwertwarnung",
      "benzol": "Benzol",
      "benzol_grenzwertwarnung": "Benzol_Grenzwertwarnung"
    },
    "gfiTheme": "trinkwasser",
    "layerAttribution": "nicht vorhanden",
    "legendURL": "",
    "cache": false,
    "featureCount": 1,
    "datasets": [
      {
        "md_id": "73A344E9-CDB5-4A17-89C1-05E202989755",
        "csw_url": "https://metaver.de/csw",
        "show_doc_url": "https://metaver.de/trefferanzeige?cmd=doShowDocument&docuuid=",
        "rs_id": "https://registry.gdi-de.org/id/de.hh/2535cb6b-0447-4c4a-9bcd-63c1ac3e0622",
        "md_name": "Hamburger Trinkwasserdatenbank (ZTEIS)",
        "bbox": "461468.96892897453,5916367.229806512,587010.9095989474,5980347.755797674",
        "kategorie_opendata": [
          "Umwelt"
        ],
        "kategorie_inspire": [
          "Gesundheit und Sicherheit"
        ],
        "kategorie_organisation": "Behörde für Justiz und Verbraucherschutz (BJV)"
      }
    ],
    "notSupportedIn3D": false
  },
  {
    "id": "4560",
    "name": "app:hamburgconvention",
    "url": "https://geodienste.hamburg.de/HH_WFS_Eventlotse",
    "typ": "WFS",
    "featureType": "hamburgconvention",
    "outputFormat": "XML",
    "version": "1.1.0",
    "featureNS": "http://www.deegree.org/app",
    "gfiAttributes": {
      "flaechenname": "Flächenname",
      "bezirk": "Bezirk",
      "flaeche_eventlotse_m": "Eventfläche",
      "hinweisstempel": "Hinweisstempel",
      "premiumflaeche": "Premiumfläche",
      "url": "Link zur Detailansicht"
    },
    "gfiTheme": "default",
    "layerAttribution": "nicht vorhanden",
    "legendURL": "",
    "hitTolerance": "",
    "datasets": [
      {
        "md_id": "295985A0-B456-4BAD-904B-B780508F214C",
        "csw_url": "https://metaver.de/csw",
        "show_doc_url": "https://metaver.de/trefferanzeige?cmd=doShowDocument&docuuid=",
        "rs_id": "https://registry.gdi-de.org/id/de.hh/38c52173-45cf-41bc-bdf8-373de9d12947",
        "md_name": "Eventlotse Daten Hamburg",
        "bbox": "461468.96892897453,5916367.229806512,587010.9095989474,5980347.755797674",
        "kategorie_opendata": [
          "Bildung, Kultur und Sport"
        ],
        "kategorie_inspire": [
          "kein INSPIRE-Thema"
        ],
        "kategorie_organisation": "Hamburg Convention Bureau GmbH"
      }
    ],
    "urlIsVisible": true
  },
  {
    "id": "4561",
    "name": "Eventlotse Hamburgconvention",
    "url": "https://geodienste.hamburg.de/HH_WMS_Eventlotse",
    "typ": "WMS",
    "layers": "eventlotse_hamburgconvention",
    "format": "image/png",
    "version": "1.3.0",
    "singleTile": false,
    "transparent": true,
    "transparency": 0,
    "urlIsVisible": true,
    "tilesize": 512,
    "gutter": 0,
    "minScale": "1000",
    "maxScale": "20000",
    "gfiAttributes": {
      "flaechenname": "Flächenname",
      "bezirk": "Bezirk",
      "flaeche_eventlotse_m": "Eventfläche",
      "hinweisstempel": "Hinweisstempel",
      "premiumflaeche": "Premiumfläche",
      "url": "Link zur Detailansicht"
    },
    "gfiTheme": "default",
    "layerAttribution": "nicht vorhanden",
    "legendURL": "",
    "cache": false,
    "featureCount": 10,
    "datasets": [
      {
        "md_id": "295985A0-B456-4BAD-904B-B780508F214C",
        "csw_url": "https://metaver.de/csw",
        "show_doc_url": "https://metaver.de/trefferanzeige?cmd=doShowDocument&docuuid=",
        "rs_id": "https://registry.gdi-de.org/id/de.hh/38c52173-45cf-41bc-bdf8-373de9d12947",
        "md_name": "Eventlotse Daten Hamburg",
        "bbox": "461468.96892897453,5916367.229806512,587010.9095989474,5980347.755797674",
        "kategorie_opendata": [
          "Bildung, Kultur und Sport"
        ],
        "kategorie_inspire": [
          "kein INSPIRE-Thema"
        ],
        "kategorie_organisation": "Hamburg Convention Bureau GmbH"
      }
    ],
    "notSupportedIn3D": false
  },
  {
    "id": "8712",
    "name": "de.hh.up:staatliche schulen",
    "url": "https://geodienste.hamburg.de/HH_WFS_Schulen",
    "typ": "WFS",
    "featureType": "staatliche_schulen",
    "outputFormat": "XML",
    "version": "1.1.0",
    "featureNS": "https://registry.gdi-de.org/id/de.hh.up",
    "gfiAttributes": {
      "schulname": "Name",
      "schulform": "Schulform",
      "schultyp": "Schulstandort",
      "schwerpunktschule": "Schwerpunktschule Inklusion",
      "adresse_strasse_hausnr": "Straße",
      "adresse_ort": "Ort",
      "stadtteil": "Stadtteil",
      "bezirk": "Bezirk",
      "schul_telefonnr": "Telefon",
      "schul_email": "Email",
      "schulportrait": "Schulportrait",
      "schul_homepage": "Homepage",
      "name_schulleiter": "Schulleitung",
      "zustaendiges_rebbz": "ReBBZ Standort",
      "rebbz_homepage": "Homepage des ReBBZ",
      "schulaufsicht": "Schulaufsicht",
      "offenetuer": "Tag d. offenen Tür",
      "anzahl_schueler": "Schülerzahl",
      "anzahl_schueler_gesamt": "Schülerzahl gesamt",
      "zuegigkeit_kl_1": "Parallelklassen (Kl.1)",
      "standortkl1": "Standort Klasse 1",
      "zuegigkeit_kl_5": "Parallelklassen (Kl.5)",
      "standortkl5": "Standort Klasse 5",
      "abschluss": "Abschluss",
      "foerderart": "Förderart",
      "auszeichnung": "Auszeichnung",
      "schuelerzeitung": "Schülerzeitung",
      "schulische_ausrichtung": "Schwerpunkte in den Angeboten",
      "schulpartnerschaft": "Schulpartnerschaft",
      "schulinspektion_link": "Schulinspektion",
      "einzugsgebiet": "Einzugsgebiet",
      "schulwahl_wohnort": "Schulwahl Wohnort",
      "fremdsprache": "Fremdsprachen",
      "fremdsprache_mit_klasse": "Fremdsprachen ab Klassenstufe",
      "bilingual": "Bilingual",
      "sprachzertifikat": "Sprachzertifikat",
      "ganztagsform": "Ganztagsform",
      "kernzeitbetreuung": "Anteil Kernzeitbetreuung",
      "ferienbetreuung_anteil": "Anteil Ferienbetreuung",
      "kernunterricht": "Kernunterricht",
      "mittagspause": "Mittagspause",
      "kantine_vorh": "Kantine",
      "wahlmoeglichkeit_essen": "Wahlmöglichkeit Essen",
      "vegetarisch": "Vegetarisch",
      "nutzung_kantine_anteil": "Nutzung Kantine",
      "kiosk_vorh": "Kiosk",
      "name_verwaltungsleitung": "Verwaltungsleitung",
      "name_stellv_schulleiter": "Stellv. Schulleitung",
      "ansprechp_buero": "Ansprechpartner Büro",
      "ansprechp_klasse_1": "Ansprechpartner Kl.1",
      "sozialindex": "Sozialindex",
      "ansprechp_klasse_5": "Ansprechpartner Kl.5",
      "name_oberstufenkoordinator": "Oberstufenkoordinator",
      "oberstufenprofil": "Oberstufenprofil",
      "standortoberstufe": "Standort Oberstufe",
      "lgv_standortk_erwachsenenbildung": "Erwachsenenbildung",
      "bildungsangebot_fuer_zuwanderer": "Bildungsangebot für Zuwanderer"
    },
    "gfiTheme": "default",
    "layerAttribution": "nicht vorhanden",
    "legendURL": "",
    "hitTolerance": 0,
    "datasets": [
      {
        "md_id": "D3DDBBA3-7329-475C-BB07-14D539ED6B1E",
        "csw_url": "https://metaver.de/csw",
        "show_doc_url": "https://metaver.de/trefferanzeige?cmd=doShowDocument&docuuid=",
        "rs_id": "https://registry.gdi-de.org/id/de.hh/7988c147-7523-45bb-8f18-7f39d0d20541",
        "md_name": "Schulstammdaten und Schülerzahlen der Hamburger Schulen",
        "bbox": "461468.96892897453,5916367.229806512,587010.9095989474,5980347.755797674",
        "kategorie_opendata": [
          "Wissenschaft und Technologie",
          "Regionen und Städte",
          "Bevölkerung und Gesellschaft"
        ],
        "kategorie_inspire": [
          "Versorgungswirtschaft und staatliche Dienste"
        ],
        "kategorie_organisation": "Behörde für Schule und Berufsbildung"
      }
    ],
    "urlIsVisible": true
  },
  {
    "id": "10882",
    "name": "Bike and Ride Parkplätze",
    "url": "https://geodienste.hamburg.de/HH_WFS_Bike_und_Ride",
    "typ": "WFS",
    "featureType": "bike_und_ride",
    "outputFormat": "XML",
    "version": "1.1.0",
    "featureNS": "https://registry.gdi-de.org/id/de.hh.up",
    "gfiAttributes": {
      "haltestelle": "Haltestelle",
      "fahrradstellplaetze_gesamt": "Fahrradstellplätze gesamt",
      "davon_nicht_ueberdachte_stellplaetze": "Davon nicht überdachte Stellplätze",
      "davon_ueberdachte_stellplaetze": "Davon überdachte Stellplätze",
      "davon_gesicherte_mietstellplaetze": "Davon gesicherte Mietstellplätze",
      "schliessfaecher": "Schließfächer",
      "internet": "Internet",
      "email": "E-Mail",
      "stand": "Stand"
    },
    "gfiTheme": "default",
    "layerAttribution": "nicht vorhanden",
    "legendURL": "",
    "hitTolerance": 0,
    "datasets": [
      {
        "md_id": "6520CC0A-D2A6-11D5-88C8-000102DCCF41",
        "csw_url": "https://metaver.de/csw",
        "show_doc_url": "https://metaver.de/trefferanzeige?cmd=doShowDocument&docuuid=",
        "rs_id": "https://registry.gdi-de.org/id/de.hh/c8898da0-c19e-453e-9e48-0de68994a3cb",
        "md_name": "Bike + Ride Anlagen Hamburg",
        "bbox": "461468.96892897453,5916367.229806512,587010.9095989474,5980347.755797674",
        "kategorie_opendata": [
          "Verkehr"
        ],
        "kategorie_inspire": [
          "Verkehrsnetze"
        ],
        "kategorie_organisation": "Behörde für Verkehr und Mobilitätswende (BVM)"
      }
    ],
    "urlIsVisible": true
  },
  {
    "id": "18105",
    "name": "Anzahl frei verfügbarer Fahrräder je StadtRad-Station",
    "url": "https://iot.hamburg.de",
    "typ": "SensorThings",
    "version": "1.1",
    "minScale": "0",
    "maxScale": "1000000",
    "gfiAttributes": {
      "description": "Stationsname",
      "dataStreamDescription": "Datenbeschreibung",
      "stationsNummer": "Stationsnummer",
      "assetID": "Stations-ID",
      "dataStreamValue": "Anzahl freie Fahrräder",
      "dataStreamPhenomenonTime": "Letzte Aktualisierung",
      "ownerThing": "Betreiber",
      "ownerData": "Dateneigentümer",
      "metadata": "Metadateneintrag",
      "@iot.id": "Thing-ID",
      "dataStreamId": "Datastream-ID",
      "@Datastreams.0": {
        "type": "linechart",
        "name": "1",
        "query": "Observations?$filter=(resultTime gt now() sub duration'PT24H')&$orderby=phenomenonTime",
        "format": "dd HH:mm",
        "options": {
          "pointRadius": 1
        },
        "download": true
      }
    },
    "layerAttribution": "nicht vorhanden",
    "legendURL": "",
    "datasets": [
      {
        "md_id": "D18F375E-FA5F-4998-AFF8-557969F44479",
        "csw_url": "https://metaver.de/csw",
        "show_doc_url": "https://metaver.de/trefferanzeige?cmd=doShowDocument&docuuid=",
        "rs_id": "https://registry.gdi-de.org/id/de.hh/08d1158c-2b5b-49cb-91c3-0ca9fe22a955",
        "md_name": "StadtRAD-Stationen Hamburg",
        "bbox": "461468.96892897453,5916367.229806512,587010.9095989474,5980347.755797674",
        "kategorie_opendata": [
          "Verkehr"
        ],
        "kategorie_inspire": [
          "kein INSPIRE-Thema"
        ],
        "kategorie_organisation": "Behörde für Verkehr und Mobilitätswende (BVM)"
      }
    ],
    "urlParameter": {
      "root": "Datastreams",
      "filter": "properties/serviceName%20eq%20%27HH_STA_StadtRad%27 and properties/layerName%20eq%20%27Fahrraeder%27",
      "expand": "Observations($orderby=phenomenonTime%20desc;$top=1),Thing($expand=Locations)"
    },
    "related_wms_layers": [
      "5741"
    ],
    "epsg": "EPSG:4326",
    "gfiTheme": "default",
    "styleId": "18105",
    "loadThingsOnlyInCurrentExtent": true,
    "mouseHoverField": [
      "dataStreamValue",
      "layerName",
      "description",
      "dataStreamPhenomenonTime"
    ],
    "urlIsVisible": true
  }
]